Compiling D:\_PRJ_burak\_Interlock\ICOB_1v0\__FIRM\ICOB_1v0 on 19-Mar-20 at 13:42
>>> Warning 203 "D:\_PRJ_burak\_Interlock\ICOB_1v0\__FIRM\rv1805.c" Line 146(1,1): Condition always TRUE
*** Error 1 "D:\_PRJ_burak\_Interlock\ICOB_1v0\__FIRM\gps.c" Line 48(1,2): Illegal C character in input file  0x80
*** Error 1 "D:\_PRJ_burak\_Interlock\ICOB_1v0\__FIRM\gps.c" Line 48(1,2): Illegal C character in input file  0x00
*** Error 1 "D:\_PRJ_burak\_Interlock\ICOB_1v0\__FIRM\gps.c" Line 48(1,2): Illegal C character in input file  0xE4
*** Error 1 "D:\_PRJ_burak\_Interlock\ICOB_1v0\__FIRM\gps.c" Line 48(1,2): Illegal C character in input file  0x05
*** Error 1 "D:\_PRJ_burak\_Interlock\ICOB_1v0\__FIRM\gps.c" Line 48(1,2): Illegal C character in input file  0x00
*** Error 1 "D:\_PRJ_burak\_Interlock\ICOB_1v0\__FIRM\gps.c" Line 48(1,2): Illegal C character in input file  0x00
*** Error 1 "D:\_PRJ_burak\_Interlock\ICOB_1v0\__FIRM\gps.c" Line 48(1,2): Illegal C character in input file  0xFF
*** Error 1 "D:\_PRJ_burak\_Interlock\ICOB_1v0\__FIRM\gps.c" Line 48(1,2): Illegal C character in input file  0xFF
*** Error 1 "D:\_PRJ_burak\_Interlock\ICOB_1v0\__FIRM\gps.c" Line 48(1,2): Illegal C character in input file  0xFF
*** Error 1 "D:\_PRJ_burak\_Interlock\ICOB_1v0\__FIRM\gps.c" Line 48(1,2): Illegal C character in input file  0x00
*** Error 1 "D:\_PRJ_burak\_Interlock\ICOB_1v0\__FIRM\gps.c" Line 48(1,2): Illegal C character in input file  0x06
*** Error 1 "D:\_PRJ_burak\_Interlock\ICOB_1v0\__FIRM\gps.c" Line 48(1,2): Illegal C character in input file  0x00
*** Error 1 "D:\_PRJ_burak\_Interlock\ICOB_1v0\__FIRM\gps.c" Line 48(1,2): Illegal C character in input file  0x00
*** Error 1 "D:\_PRJ_burak\_Interlock\ICOB_1v0\__FIRM\gps.c" Line 48(1,2): Illegal C character in input file  0x00
*** Error 1 "D:\_PRJ_burak\_Interlock\ICOB_1v0\__FIRM\gps.c" Line 48(1,2): Illegal C character in input file  0x00
*** Error 1 "D:\_PRJ_burak\_Interlock\ICOB_1v0\__FIRM\gps.c" Line 48(1,2): Illegal C character in input file  0x00
*** Error 1 "D:\_PRJ_burak\_Interlock\ICOB_1v0\__FIRM\gps.c" Line 48(1,2): Illegal C character in input file  0x00
*** Error 1 "D:\_PRJ_burak\_Interlock\ICOB_1v0\__FIRM\gps.c" Line 48(1,2): Illegal C character in input file  0x00
*** Error 1 "D:\_PRJ_burak\_Interlock\ICOB_1v0\__FIRM\gps.c" Line 48(1,2): Illegal C character in input file  0xE9
*** Error 58 "D:\_PRJ_burak\_Interlock\ICOB_1v0\__FIRM\gps.c" Line 48(1,2): Expecting a close paren
*** Error 1 "D:\_PRJ_burak\_Interlock\ICOB_1v0\__FIRM\gps.c" Line 48(9,10): Illegal C character in input file  0x8C
*** Error 1 "D:\_PRJ_burak\_Interlock\ICOB_1v0\__FIRM\gps.c" Line 48(9,10): Illegal C character in input file  0xED
*** Error 1 "D:\_PRJ_burak\_Interlock\ICOB_1v0\__FIRM\gps.c" Line 48(9,10): Illegal C character in input file  0x12
*** Error 1 "D:\_PRJ_burak\_Interlock\ICOB_1v0\__FIRM\gps.c" Line 48(9,10): Illegal C character in input file  0xAE
*** Error 1 "D:\_PRJ_burak\_Interlock\ICOB_1v0\__FIRM\gps.c" Line 48(13,14): Illegal C character in input file  0xB2
*** Error 1 "D:\_PRJ_burak\_Interlock\ICOB_1v0\__FIRM\gps.c" Line 48(15,16): Illegal C character in input file  0xE5
*** Error 1 "D:\_PRJ_burak\_Interlock\ICOB_1v0\__FIRM\gps.c" Line 48(15,16): Illegal C character in input file  0x40
*** Error 1 "D:\_PRJ_burak\_Interlock\ICOB_1v0\__FIRM\gps.c" Line 48(17,18): Illegal C character in input file  0x0C
*** Error 1 "D:\_PRJ_burak\_Interlock\ICOB_1v0\__FIRM\gps.c" Line 48(17,18): Illegal C character in input file  0x00
*** Error 1 "D:\_PRJ_burak\_Interlock\ICOB_1v0\__FIRM\gps.c" Line 48(17,18): Illegal C character in input file  0x00
*** Error 1 "D:\_PRJ_burak\_Interlock\ICOB_1v0\__FIRM\gps.c" Line 48(17,18): Illegal C character in input file  0xB0
*** Error 1 "D:\_PRJ_burak\_Interlock\ICOB_1v0\__FIRM\gps.c" Line 48(17,18): Illegal C character in input file  0xD7
*** Error 1 "D:\_PRJ_burak\_Interlock\ICOB_1v0\__FIRM\gps.c" Line 48(17,18): Illegal C character in input file  0x01
*** Error 1 "D:\_PRJ_burak\_Interlock\ICOB_1v0\__FIRM\gps.c" Line 48(17,18): Illegal C character in input file  0x00
*** Error 1 "D:\_PRJ_burak\_Interlock\ICOB_1v0\__FIRM\gps.c" Line 48(17,18): Illegal C character in input file  0x80
*** Error 1 "D:\_PRJ_burak\_Interlock\ICOB_1v0\__FIRM\gps.c" Line 48(17,18): Illegal C character in input file  0x00
*** Error 1 "D:\_PRJ_burak\_Interlock\ICOB_1v0\__FIRM\gps.c" Line 48(17,18): Illegal C character in input file  0x00
*** Error 1 "D:\_PRJ_burak\_Interlock\ICOB_1v0\__FIRM\gps.c" Line 48(17,18): Illegal C character in input file  0x00
*** Error 1 "D:\_PRJ_burak\_Interlock\ICOB_1v0\__FIRM\gps.c" Line 48(17,18): Illegal C character in input file  0x00
*** Error 1 "D:\_PRJ_burak\_Interlock\ICOB_1v0\__FIRM\gps.c" Line 48(17,18): Illegal C character in input file  0x00
*** Error 1 "D:\_PRJ_burak\_Interlock\ICOB_1v0\__FIRM\gps.c" Line 48(17,18): Illegal C character in input file  0x00
*** Error 1 "D:\_PRJ_burak\_Interlock\ICOB_1v0\__FIRM\gps.c" Line 48(17,18): Illegal C character in input file  0x00
*** Error 1 "D:\_PRJ_burak\_Interlock\ICOB_1v0\__FIRM\gps.c" Line 48(17,18): Illegal C character in input file  0x00
*** Error 1 "D:\_PRJ_burak\_Interlock\ICOB_1v0\__FIRM\gps.c" Line 48(17,18): Illegal C character in input file  0x00
*** Error 1 "D:\_PRJ_burak\_Interlock\ICOB_1v0\__FIRM\gps.c" Line 48(17,18): Illegal C character in input file  0x00
*** Error 1 "D:\_PRJ_burak\_Interlock\ICOB_1v0\__FIRM\gps.c" Line 48(17,18): Illegal C character in input file  0x00
*** Error 1 "D:\_PRJ_burak\_Interlock\ICOB_1v0\__FIRM\gps.c" Line 48(21,22): Illegal C character in input file  0x0C
*** Error 1 "D:\_PRJ_burak\_Interlock\ICOB_1v0\__FIRM\gps.c" Line 48(21,22): Illegal C character in input file  0xAB
*** Error 1 "D:\_PRJ_burak\_Interlock\ICOB_1v0\__FIRM\gps.c" Line 48(23,24): Illegal C character in input file  0x40
*** Error 1 "D:\_PRJ_burak\_Interlock\ICOB_1v0\__FIRM\gps.c" Line 48(26,27): Illegal C character in input file  0xD0
*** Error 1 "D:\_PRJ_burak\_Interlock\ICOB_1v0\__FIRM\gps.c" Line 48(28,29): Illegal C character in input file  0x00
*** Error 1 "D:\_PRJ_burak\_Interlock\ICOB_1v0\__FIRM\gps.c" Line 48(28,29): Illegal C character in input file  0x00
*** Error 1 "D:\_PRJ_burak\_Interlock\ICOB_1v0\__FIRM\gps.c" Line 48(28,29): Illegal C character in input file  0x00
*** Error 1 "D:\_PRJ_burak\_Interlock\ICOB_1v0\__FIRM\gps.c" Line 48(28,29): Illegal C character in input file  0x00
*** Error 1 "D:\_PRJ_burak\_Interlock\ICOB_1v0\__FIRM\gps.c" Line 48(28,29): Illegal C character in input file  0x90
*** Error 1 "D:\_PRJ_burak\_Interlock\ICOB_1v0\__FIRM\gps.c" Line 48(31,32): Illegal C character in input file  0x00
*** Error 1 "D:\_PRJ_burak\_Interlock\ICOB_1v0\__FIRM\gps.c" Line 48(31,32): Illegal C character in input file  0x00
*** Error 1 "D:\_PRJ_burak\_Interlock\ICOB_1v0\__FIRM\gps.c" Line 48(31,32): Illegal C character in input file  0x00
*** Error 1 "D:\_PRJ_burak\_Interlock\ICOB_1v0\__FIRM\gps.c" Line 48(31,32): Illegal C character in input file  0x00
*** Error 1 "D:\_PRJ_burak\_Interlock\ICOB_1v0\__FIRM\gps.c" Line 48(31,32): Illegal C character in input file  0x00
*** Error 1 "D:\_PRJ_burak\_Interlock\ICOB_1v0\__FIRM\gps.c" Line 48(31,32): Illegal C character in input file  0x00
*** Error 1 "D:\_PRJ_burak\_Interlock\ICOB_1v0\__FIRM\gps.c" Line 48(31,32): Illegal C character in input file  0x00
*** Error 1 "D:\_PRJ_burak\_Interlock\ICOB_1v0\__FIRM\gps.c" Line 48(31,32): Illegal C character in input file  0x00
*** Error 1 "D:\_PRJ_burak\_Interlock\ICOB_1v0\__FIRM\gps.c" Line 48(31,32): Illegal C character in input file  0x00
*** Error 1 "D:\_PRJ_burak\_Interlock\ICOB_1v0\__FIRM\gps.c" Line 48(31,32): Illegal C character in input file  0x00
*** Error 1 "D:\_PRJ_burak\_Interlock\ICOB_1v0\__FIRM\gps.c" Line 48(31,32): Illegal C character in input file  0x00
*** Error 1 "D:\_PRJ_burak\_Interlock\ICOB_1v0\__FIRM\gps.c" Line 48(31,32): Illegal C character in input file  0x00
*** Error 1 "D:\_PRJ_burak\_Interlock\ICOB_1v0\__FIRM\gps.c" Line 48(31,32): Illegal C character in input file  0x00
*** Error 1 "D:\_PRJ_burak\_Interlock\ICOB_1v0\__FIRM\gps.c" Line 48(31,32): Illegal C character in input file  0x00
*** Error 1 "D:\_PRJ_burak\_Interlock\ICOB_1v0\__FIRM\gps.c" Line 48(31,32): Illegal C character in input file  0x00
*** Error 1 "D:\_PRJ_burak\_Interlock\ICOB_1v0\__FIRM\gps.c" Line 48(31,32): Illegal C character in input file  0x00
*** Error 1 "D:\_PRJ_burak\_Interlock\ICOB_1v0\__FIRM\gps.c" Line 48(31,32): Illegal C character in input file  0x00
*** Error 1 "D:\_PRJ_burak\_Interlock\ICOB_1v0\__FIRM\gps.c" Line 48(31,32): Illegal C character in input file  0x00
*** Error 1 "D:\_PRJ_burak\_Interlock\ICOB_1v0\__FIRM\gps.c" Line 48(31,32): Illegal C character in input file  0x00
*** Error 1 "D:\_PRJ_burak\_Interlock\ICOB_1v0\__FIRM\gps.c" Line 48(31,32): Illegal C character in input file  0x00
*** Error 1 "D:\_PRJ_burak\_Interlock\ICOB_1v0\__FIRM\gps.c" Line 48(31,32): Illegal C character in input file  0x00
*** Error 1 "D:\_PRJ_burak\_Interlock\ICOB_1v0\__FIRM\gps.c" Line 48(31,32): Illegal C character in input file  0x00
*** Error 1 "D:\_PRJ_burak\_Interlock\ICOB_1v0\__FIRM\gps.c" Line 48(31,32): Illegal C character in input file  0x00
*** Error 1 "D:\_PRJ_burak\_Interlock\ICOB_1v0\__FIRM\gps.c" Line 48(31,32): Illegal C character in input file  0x00
*** Error 1 "D:\_PRJ_burak\_Interlock\ICOB_1v0\__FIRM\gps.c" Line 48(31,32): Illegal C character in input file  0x00
*** Error 1 "D:\_PRJ_burak\_Interlock\ICOB_1v0\__FIRM\gps.c" Line 48(31,32): Illegal C character in input file  0x00
*** Error 1 "D:\_PRJ_burak\_Interlock\ICOB_1v0\__FIRM\gps.c" Line 48(31,32): Illegal C character in input file  0x00
*** Error 1 "D:\_PRJ_burak\_Interlock\ICOB_1v0\__FIRM\gps.c" Line 48(31,32): Illegal C character in input file  0x00
*** Error 1 "D:\_PRJ_burak\_Interlock\ICOB_1v0\__FIRM\gps.c" Line 48(31,32): Illegal C character in input file  0x00
*** Error 1 "D:\_PRJ_burak\_Interlock\ICOB_1v0\__FIRM\gps.c" Line 48(31,32): Illegal C character in input file  0x00
*** Error 1 "D:\_PRJ_burak\_Interlock\ICOB_1v0\__FIRM\gps.c" Line 48(31,32): Illegal C character in input file  0x00
*** Error 1 "D:\_PRJ_burak\_Interlock\ICOB_1v0\__FIRM\gps.c" Line 48(31,32): Illegal C character in input file  0x00
*** Error 1 "D:\_PRJ_burak\_Interlock\ICOB_1v0\__FIRM\gps.c" Line 48(34,35): Illegal C character in input file  0x50 after \
*** Error 1 "D:\_PRJ_burak\_Interlock\ICOB_1v0\__FIRM\gps.c" Line 48(45,46): Illegal C character in input file  0x50 after \
*** Error 1 "D:\_PRJ_burak\_Interlock\ICOB_1v0\__FIRM\gps.c" Line 48(51,52): Illegal C character in input file  0x50 after \
*** Error 1 "D:\_PRJ_burak\_Interlock\ICOB_1v0\__FIRM\gps.c" Line 48(56,57): Illegal C character in input file  0x44 after \
*** Error 1 "D:\_PRJ_burak\_Interlock\ICOB_1v0\__FIRM\gps.c" Line 48(1,2): Illegal C character in input file  0x80
*** Error 1 "D:\_PRJ_burak\_Interlock\ICOB_1v0\__FIRM\gps.c" Line 48(1,2): Illegal C character in input file  0x00
*** Error 1 "D:\_PRJ_burak\_Interlock\ICOB_1v0\__FIRM\gps.c" Line 48(1,2): Illegal C character in input file  0xE4
*** Error 1 "D:\_PRJ_burak\_Interlock\ICOB_1v0\__FIRM\gps.c" Line 48(1,2): Illegal C character in input file  0x06
*** Error 1 "D:\_PRJ_burak\_Interlock\ICOB_1v0\__FIRM\gps.c" Line 48(1,2): Illegal C character in input file  0x00
*** Error 1 "D:\_PRJ_burak\_Interlock\ICOB_1v0\__FIRM\gps.c" Line 48(1,2): Illegal C character in input file  0x00
*** Error 1 "D:\_PRJ_burak\_Interlock\ICOB_1v0\__FIRM\gps.c" Line 48(1,2): Illegal C character in input file  0xFF
*** Error 1 "D:\_PRJ_burak\_Interlock\ICOB_1v0\__FIRM\gps.c" Line 48(1,2): Illegal C character in input file  0xFF
*** Error 1 "D:\_PRJ_burak\_Interlock\ICOB_1v0\__FIRM\gps.c" Line 48(1,2): Illegal C character in input file  0xFF
*** Error 1 "D:\_PRJ_burak\_Interlock\ICOB_1v0\__FIRM\gps.c" Line 48(1,2): Illegal C character in input file  0x00
